<?xml version="1.0" encoding="UTF-8"?>
<svg width="24px" height="30px" viewBox="0 0 24 30" version="1.1" xmlns="http://www.w3.org/2000/svg"
     xmlns:xlink="http://www.w3.org/1999/xlink">
  <!-- Generator: Sketch 52.6 (67491) - http://www.bohemiancoding.com/sketch -->
  <title>Group Copy 3</title>
  <desc>Created with Sketch.</desc>
  <g id="Page-1" stroke="none" stroke-width="1" fill="none" fill-rule="evenodd">
    <g id="Group-Copy-3" fill="#FDD677">
      <path
        d="M2.84723545,6.35344754 C1.5741232,6.65019436 0.64402629,7.1219237 0.056944709,7.76863558 C0.0189815697,4.44384496 0,2.78144965 0,2.78144965 C0.0242474245,1.3153732 0.549240903,0.435310419 1.57498044,0.141261297 C4.38866137,0.0625375532 5.79550184,0.0231756815 5.79550184,0.0231756815 C12.0398259,0.00772522716 15.161988,0 15.161988,0 C20.9652049,5.86504151 23.8668134,8.79756226 23.8668134,8.79756226 C23.9552308,21.2327255 23.9994395,27.4503072 23.9994395,27.4503072 C24.0175638,28.5257078 23.5961729,29.3342816 22.7352669,29.8760285 C18.5713228,29.9586762 16.4893508,30 16.4893508,30 C16.5402949,28.1957303 16.5657669,27.2935954 16.5657669,27.2935954 C19.4737434,27.1724442 20.9277316,27.1118686 20.9277316,27.1118686 C20.9882277,15.9765055 21.0184758,10.4088239 21.0184758,10.4088239 C16.0284048,10.4343294 13.5333693,10.4470822 13.5333693,10.4470822 C13.4547489,5.41244129 13.4154387,2.89512084 13.4154387,2.89512084 L2.75869561,2.84177999 L2.84723545,6.35344754 Z"
        id="Path"></path>
      <path
        d="M0.000102054539,30 C-0.00438834516,25.5522242 0.139304445,23.3283363 0.431180426,23.3283363 C0.868994396,23.3283363 0.868994396,21 4.26329646,21 C6.5261645,21 7.60396009,21 7.49668323,21 C7.84069473,21.0199617 8.95342008,21.0299426 10.8348593,21.0299426 C12.7591655,21.0930212 14.1475457,22.2724272 15,24.5681607 L15,29.9700574 L0.000102054539,30 Z M2.3699376,26.9597022 C9.16330959,26.9597022 12.5599956,26.9597022 12.5599956,26.9597022 C12.4501275,25.3195958 11.7251017,24.4120852 10.3849184,24.2371704 C9.79681313,24.0288198 8.86915332,23.9723031 7.60193893,24.0676204 C6.25056143,24.0384263 5.57487268,24.0238293 5.57487268,24.0238293 C3.95981177,24.3479581 3.06003358,24.6753306 2.87553811,25.0059469 C2.67819015,25.7817101 2.50965664,26.4329618 2.3699376,26.9597022 Z"
        id="Combined-Shape"></path>
      <path
        d="M7.5,18 C5.56700338,18 4,15.9852814 4,13.5 C4,11.0147186 5.56700338,9 7.5,9 C9.43299662,9 11,11.0147186 11,13.5 C11,15.9852814 9.43299662,18 7.5,18 Z M7.5,15 C8.14433221,15 8.66666667,14.3284271 8.66666667,13.5 C8.66666667,12.6715729 8.14433221,12 7.5,12 C6.85566779,12 6.33333333,12.6715729 6.33333333,13.5 C6.33333333,14.3284271 6.85566779,15 7.5,15 Z"
        id="Oval-2"></path>
    </g>
  </g>
</svg>
